Score: 15000

CURRENT RANK: C

scorediff(all) = 5000

**Find the new rank**

Rank = 2

TempScore = ScoreDiff[0] + ScoreDiff[1] = 10000, C rank

15000 >= 10000 + 5000? Yes

B rank, Rank = 3

TempScore = 15000

15000 >= 15000 + 5000? No

B rank, Rank = 3 still

----------------------------------
Try again, this time Score = 25000

Rank = 3, B rank

TempScore = ScoreDiff[0] + ScoreDiff[1] + ScoreDiff[2] = 15000, B rank

25000 >= 15000 + 5000? Yes

A rank, Rank = 4

Rank == 4, break